module github.com/snosscire/snowrail

go 1.18

require (
	github.com/google/uuid v1.3.0
	github.com/wailsapp/wails/v2 v2.4.1
	gopkg.in/irc.v4 v4.0.0
)

require (
	github.com/bep/debounce v1.2.1 // indirect
	github.com/go-ole/go-ole v1.2.6 // indirect
	github.com/jchv/go-winloader v0.0.0-20210711035445-715c2860da7e // indirect
	github.com/labstack/echo/v4 v4.9.0 // indirect
	github.com/labstack/gommon v0.3.1 // indirect
	github.com/leaanthony/go-ansi-parser v1.0.1 // indirect
	github.com/leaanthony/gosod v1.0.3 // indirect
	github.com/leaanthony/slicer v1.5.0 // indirect
	github.com/mattn/go-colorable v0.1.11 // indirect
	github.com/mattn/go-isatty v0.0.14 // indirect
	github.com/pkg/browser v0.0.0-20210706143420-7d21f8c997e2 // indirect
	github.com/pkg/errors v0.9.1 // indirect
	github.com/samber/lo v1.27.1 // indirect
	github.com/tkrajina/go-reflector v0.5.5 // indirect
	github.com/valyala/bytebufferpool v1.0.0 // indirect
	github.com/valyala/fasttemplate v1.2.1 // indirect
	github.com/wailsapp/mimetype v1.4.1 // indirect
	golang.org/x/crypto v0.1.0 // indirect
	golang.org/x/exp v0.0.0-20220303212507-bbda1eaf7a17 // indirect
	golang.org/x/net v0.7.0 // indirect
	golang.org/x/sys v0.5.0 // indirect
	golang.org/x/text v0.7.0 // indirect
	golang.org/x/time v0.0.0-20220722155302-e5dcc9cfc0b9 // indirect
)

// replace github.com/wailsapp/wails/v2 v2.2.0 => /home/tobias/go/pkg/mod
